{
  "project_info": {
    "project_number": "704588391007",
    "firebase_url": "https://leanon.firebaseio.com",
    "project_id": "leanon",
    "storage_bucket": "leanon.appspot.com"
  },
  "client": [
    {
      "client_info": {
        "mobilesdk_app_id": "1:704588391007:android:0e5deeb5d4edb3793371ea",
        "android_client_info": {
          "package_name": "com.opusone.leanon.firebasemanager"
        }
      },
      "oauth_client": [
        {
          "client_id": "704588391007-611dfiqfujoohu9gq1g7lklfmlsqctil.apps.googleusercontent.com",
          "client_type": 3
        }
      ],
      "api_key": [
        {
          "current_key": "AIzaSyD1hdNX9c8Ue8lnp6kWsqpBuYQW4DPFgcs"
        }
      ],
      "services": {
        "appinvite_service": {
          "other_platform_oauth_client": [
            {
              "client_id": "704588391007-611dfiqfujoohu9gq1g7lklfmlsqctil.apps.googleusercontent.com",
              "client_type": 3
            }
          ]
        }
      }
    },
    {
      "client_info": {
        "mobilesdk_app_id": "1:704588391007:android:ff9724054a3e52433371ea",
        "android_client_info": {
          "package_name": "com.opusone.leanon.guardian"
        }
      },
      "oauth_client": [
        {
          "client_id": "704588391007-d0nm0n3lkf6fb0re9s1f945fke4ks4iq.apps.googleusercontent.com",
          "client_type": 1,
          "android_info": {
            "package_name": "com.opusone.leanon.guardian",
            "certificate_hash": "8d46ca63a9451e2b2724503480d9dd320b33da3e"
          }
        },
        {
          "client_id": "704588391007-611dfiqfujoohu9gq1g7lklfmlsqctil.apps.googleusercontent.com",
          "client_type": 3
        }
      ],
      "api_key": [
        {
          "current_key": "AIzaSyD1hdNX9c8Ue8lnp6kWsqpBuYQW4DPFgcs"
        }
      ],
      "services": {
        "appinvite_service": {
          "other_platform_oauth_client": [
            {
              "client_id": "704588391007-611dfiqfujoohu9gq1g7lklfmlsqctil.apps.googleusercontent.com",
              "client_type": 3
            }
          ]
        }
      }
    },
    {
      "client_info": {
        "mobilesdk_app_id": "1:704588391007:android:f87df4857421c18a3371ea",
        "android_client_info": {
          "package_name": "com.opusone.leanon.launcher"
        }
      },
      "oauth_client": [
        {
          "client_id": "704588391007-mlc3oorbr2n3mbrjrmc73ngd1deg5ik6.apps.googleusercontent.com",
          "client_type": 1,
          "android_info": {
            "package_name": "com.opusone.leanon.launcher",
            "certificate_hash": "8d46ca63a9451e2b2724503480d9dd320b33da3e"
          }
        },
        {
          "client_id": "704588391007-611dfiqfujoohu9gq1g7lklfmlsqctil.apps.googleusercontent.com",
          "client_type": 3
        }
      ],
      "api_key": [
        {
          "current_key": "AIzaSyD1hdNX9c8Ue8lnp6kWsqpBuYQW4DPFgcs"
        }
      ],
      "services": {
        "appinvite_service": {
          "other_platform_oauth_client": [
            {
              "client_id": "704588391007-611dfiqfujoohu9gq1g7lklfmlsqctil.apps.googleusercontent.com",
              "client_type": 3
            }
          ]
        }
      }
    },
    {
      "client_info": {
        "mobilesdk_app_id": "1:704588391007:android:3a7a9bc230e2b13d3371ea",
        "android_client_info": {
          "package_name": "com.opusone.leanon.medication"
        }
      },
      "oauth_client": [
        {
          "client_id": "704588391007-04cq11fbcuo77p36p5sp2p3ujqapcoq6.apps.googleusercontent.com",
          "client_type": 1,
          "android_info": {
            "package_name": "com.opusone.leanon.medication",
            "certificate_hash": "8d46ca63a9451e2b2724503480d9dd320b33da3e"
          }
        },
        {
          "client_id": "704588391007-611dfiqfujoohu9gq1g7lklfmlsqctil.apps.googleusercontent.com",
          "client_type": 3
        }
      ],
      "api_key": [
        {
          "current_key": "AIzaSyD1hdNX9c8Ue8lnp6kWsqpBuYQW4DPFgcs"
        }
      ],
      "services": {
        "appinvite_service": {
          "other_platform_oauth_client": [
            {
              "client_id": "704588391007-611dfiqfujoohu9gq1g7lklfmlsqctil.apps.googleusercontent.com",
              "client_type": 3
            }
          ]
        }
      }
    },
    {
      "client_info": {
        "mobilesdk_app_id": "1:704588391007:android:64f366ba1f51b9a53371ea",
        "android_client_info": {
          "package_name": "com.opusone.leanon.messenger"
        }
      },
      "oauth_client": [
        {
          "client_id": "704588391007-pvsujtoorf30qogjjfif9t77e8cdh9ec.apps.googleusercontent.com",
          "client_type": 1,
          "android_info": {
            "package_name": "com.opusone.leanon.messenger",
            "certificate_hash": "8d46ca63a9451e2b2724503480d9dd320b33da3e"
          }
        },
        {
          "client_id": "704588391007-611dfiqfujoohu9gq1g7lklfmlsqctil.apps.googleusercontent.com",
          "client_type": 3
        }
      ],
      "api_key": [
        {
          "current_key": "AIzaSyD1hdNX9c8Ue8lnp6kWsqpBuYQW4DPFgcs"
        }
      ],
      "services": {
        "appinvite_service": {
          "other_platform_oauth_client": [
            {
              "client_id": "704588391007-611dfiqfujoohu9gq1g7lklfmlsqctil.apps.googleusercontent.com",
              "client_type": 3
            }
          ]
        }
      }
    },
    {
      "client_info": {
        "mobilesdk_app_id": "1:704588391007:android:b3d36f76edadb1003371ea",
        "android_client_info": {
          "package_name": "com.opusone.leanon.scale"
        }
      },
      "oauth_client": [
        {
          "client_id": "704588391007-uc7iielgaj3alb61v44j52rs9885pckm.apps.googleusercontent.com",
          "client_type": 1,
          "android_info": {
            "package_name": "com.opusone.leanon.scale",
            "certificate_hash": "8d46ca63a9451e2b2724503480d9dd320b33da3e"
          }
        },
        {
          "client_id": "704588391007-611dfiqfujoohu9gq1g7lklfmlsqctil.apps.googleusercontent.com",
          "client_type": 3
        }
      ],
      "api_key": [
        {
          "current_key": "AIzaSyD1hdNX9c8Ue8lnp6kWsqpBuYQW4DPFgcs"
        }
      ],
      "services": {
        "appinvite_service": {
          "other_platform_oauth_client": [
            {
              "client_id": "704588391007-611dfiqfujoohu9gq1g7lklfmlsqctil.apps.googleusercontent.com",
              "client_type": 3
            }
          ]
        }
      }
    },
    {
      "client_info": {
        "mobilesdk_app_id": "1:704588391007:android:a1e39fd53c880e493371ea",
        "android_client_info": {
          "package_name": "com.opusone.leanon.voip"
        }
      },
      "oauth_client": [
        {
          "client_id": "704588391007-8m6hpgv5ganbrlvsun8gcngcifjift15.apps.googleusercontent.com",
          "client_type": 1,
          "android_info": {
            "package_name": "com.opusone.leanon.voip",
            "certificate_hash": "8d46ca63a9451e2b2724503480d9dd320b33da3e"
          }
        },
        {
          "client_id": "704588391007-611dfiqfujoohu9gq1g7lklfmlsqctil.apps.googleusercontent.com",
          "client_type": 3
        }
      ],
      "api_key": [
        {
          "current_key": "AIzaSyD1hdNX9c8Ue8lnp6kWsqpBuYQW4DPFgcs"
        }
      ],
      "services": {
        "appinvite_service": {
          "other_platform_oauth_client": [
            {
              "client_id": "704588391007-611dfiqfujoohu9gq1g7lklfmlsqctil.apps.googleusercontent.com",
              "client_type": 3
            }
          ]
        }
      }
    }
  ],
  "configuration_version": "1"
}